{"totalHits":253470,"currentPage":1,"totalPages":84490,"pageList":[1,2,3,4,5,6,7,8,9,10],"foodSearchCriteria":{"dataType":["Branded"],"query":"fairlife 2% milk","generalSearchInput":"fairlife 2% milk","pageNumber":1,"numberOfResultsPerPage":50,"pageSize":3,"requireAllWords":false,"foodTypes":["Branded"]},"foods":[{"fdcId":2756829,"description":"Fairlife Lactose- Free 2% Milk - 52 fl oz","dataType":"Branded","gtinUpc":"00856312002771","publishedDate":"2026-04-23","brandOwner":"","brandName":"fairlife","ingredients":"REDUCED FAT ULTRA-FILTERED MILK, LACTASE ENZYME, VITAMIN A PALMITATE, VITAMIN D3.","marketCountry":"United States","foodCategory":"Milk/Milk Substitutes","dataSource":"Euromonitor","servingSizeUnit":"g","servingSize":240.0,"householdServingFullText":"","gpcClassCode":50131700,"shortDescription":"","tradeChannels":["NO_TRADE_CHANNEL"],"allHighlightFields":"<b>Ingredients</b>: REDUCED FAT ULTRA-FILTERED <em>MILK</em>, LACTASE ENZYME, VITAMIN A PALMITATE, VITAMIN D3.","score":459.30548,"microbes":[],"foodNutrients":[{"nutrientId":1003,"nutrientName":"Protein","nutrientNumber":"203","unitName":"G","value":13.0,"rank":600,"indentLevel":1,"foodNutrientId":35047549},{"nutrientId":1004,"nutrientName":"Total lipid (fat)","nutrientNumber":"204","unitName":"G","value":4.5,"rank":800,"indentLevel":1,"foodNutrientId":35047550},{"nutrientId":1005,"nutrientName":"Carbohydrate, by difference","nutrientNumber":"205","unitName":"G","value":6.0,"rank":1110,"indentLevel":2,"foodNutrientId":35047551},{"nutrientId":1008,"nutrientName":"Energy","nutrientNumber":"208","unitName":"KCAL","value":120,"rank":300,"indentLevel":1,"foodNutrientId":35047552},{"nutrientId":2000,"nutrientName":"Total Sugars","nutrientNumber":"269","unitName":"G","value":6.0,"rank":1510,"indentLevel":3,"foodNutrientId":35047553},{"nutrientId":1079,"nutrientName":"Fiber, total dietary","nutrientNumber":"291","unitName":"G","value":0.0,"rank":1200,"indentLevel":3,"foodNutrientId":35047554},{"nutrientId":1093,"nutrientName":"Sodium, Na","nutrientNumber":"307","unitName":"MG","value":120,"rank":5800,"indentLevel":1,"foodNutrientId":35047555},{"nutrientId":1258,"nutrientName":"Fatty acids, total saturated","nutrientNumber":"606","unitName":"G","value":3.0,"rank":9700,"indentLevel":1,"foodNutrientId":35047556}],"finalFoodInputFoods":[],"foodMeasures":[],"foodAttributes":[],"foodAttributeTypes":[],"foodVersionIds":[]},{"fdcId":2757397,"description":"Fairlife Milk, Ultra- Filtered","dataType":"Branded","gtinUpc":"00811620021418","publishedDate":"2026-04-23","brandOwner":"","brandName":"fairlife","ingredients":"Low Fat Ultra- Filtered Milk, Lactase Enzyme, Vitamin A Palmitate, Vitamin D3.","marketCountry":"United States","foodCategory":"Milk/Milk Substitutes","dataSource":"Euromonitor","servingSizeUnit":"g","servingSize":240.0,"householdServingFullText":"","gpcClassCode":50131700,"shortDescription":"","tradeChannels":["NO_TRADE_CHANNEL"],"allHighlightFields":"<b>Ingredients</b>: Low Fat Ultra- Filtered <em>Milk</em>, Lactase Enzyme, Vitamin A Palmitate, Vitamin D3.","score":420.68256,"microbes":[],"foodNutrients":[{"nutrientId":1003,"nutrientName":"Protein","nutrientNumber":"203","unitName":"G","value":13.0,"rank":600,"indentLevel":1,"foodNutrientId":35049861},{"nutrientId":1004,"nutrientName":"Total lipid (fat)","nutrientNumber":"204","unitName":"G","value":2.5,"rank":800,"indentLevel":1,"foodNutrientId":35049862},{"nutrientId":1005,"nutrientName":"Carbohydrate, by difference","nutrientNumber":"205","unitName":"G","value":6.0,"rank":1110,"indentLevel":2,"foodNutrientId":35049863},{"nutrientId":1008,"nutrientName":"Energy","nutrientNumber":"208","unitName":"KCAL","value":100,"rank":300,"indentLevel":1,"foodNutrientId":35049864},{"nutrientId":2000,"nutrientName":"Total Sugars","nutrientNumber":"269","unitName":"G","value":6.0,"rank":1510,"indentLevel":3,"foodNutrientId":35049865},{"nutrientId":1079,"nutrientName":"Fiber, total dietary","nutrientNumber":"291","unitName":"G","value":0.0,"rank":1200,"indentLevel":3,"foodNutrientId":35049866},{"nutrientId":1093,"nutrientName":"Sodium, Na","nutrientNumber":"307","unitName":"MG","value":120,"rank":5800,"indentLevel":1,"foodNutrientId":35049867},{"nutrientId":1258,"nutrientName":"Fatty acids, total saturated","nutrientNumber":"606","unitName":"G","value":1.5,"rank":9700,"indentLevel":1,"foodNutrientId":35049868}],"finalFoodInputFoods":[],"foodMeasures":[],"foodAttributes":[],"foodAttributeTypes":[],"foodVersionIds":[]},{"fdcId":2757157,"description":"Fairlife DHA Omega-3 2% Reduced Fat Lactose Free Milk","dataType":"Branded","gtinUpc":"00811620020909","publishedDate":"2026-04-23","brandOwner":"","brandName":"fairlife","ingredients":"Reduced Fat Ultra- Filtered Milk, DHA Omega-3 ( Algal Oil), Lactase Enzyme, Vitamin A Palmitate, Vitamin C ( Ascorbic Acid), Vitamin E ( Tocopherols), Vitamin D3.","marketCountry":"United States","foodCategory":"Milk/Milk Substitutes","dataSource":"Euromonitor","servingSizeUnit":"g","servingSize":240.0,"householdServingFullText":"","gpcClassCode":50131700,"shortDescription":"","tradeChannels":["NO_TRADE_CHANNEL"],"allHighlightFields":"<b>Ingredients</b>: Reduced Fat Ultra- Filtered <em>Milk</em>, DHA Omega-3 ( Algal Oil), Lactase Enzyme, Vitamin A Palmitate","score":364.84692,"microbes":[],"foodNutrients":[{"nutrientId":1003,"nutrientName":"Protein","nutrientNumber":"203","unitName":"G","value":12.0,"rank":600,"indentLevel":1,"foodNutrientId":35045183},{"nutrientId":1004,"nutrientName":"Total lipid (fat)","nutrientNumber":"204","unitName":"G","value":4.5,"rank":800,"indentLevel":1,"foodNutrientId":35045184},{"nutrientId":1005,"nutrientName":"Carbohydrate, by difference","nutrientNumber":"205","unitName":"G","value":6.0,"rank":1110,"indentLevel":2,"foodNutrientId":35045185},{"nutrientId":1008,"nutrientName":"Energy","nutrientNumber":"208","unitName":"KCAL","value":120,"rank":300,"indentLevel":1,"foodNutrientId":35045186},{"nutrientId":2000,"nutrientName":"Total Sugars","nutrientNumber":"269","unitName":"G","value":6.0,"rank":1510,"indentLevel":3,"foodNutrientId":35045187},{"nutrientId":1079,"nutrientName":"Fiber, total dietary","nutrientNumber":"291","unitName":"G","value":0.0,"rank":1200,"indentLevel":3,"foodNutrientId":35045188},{"nutrientId":1093,"nutrientName":"Sodium, Na","nutrientNumber":"307","unitName":"MG","value":120,"rank":5800,"indentLevel":1,"foodNutrientId":35045189},{"nutrientId":1258,"nutrientName":"Fatty acids, total saturated","nutrientNumber":"606","unitName":"G","value":3.0,"rank":9700,"indentLevel":1,"foodNutrientId":35045190}],"finalFoodInputFoods":[],"foodMeasures":[],"foodAttributes":[],"foodAttributeTypes":[],"foodVersionIds":[]}],"aggregations":{"dataType":{"Branded":253470,"Survey (FNDDS)":288,"SR Legacy":236,"Experimental":19,"Foundation":15},"nutrients":{}}}